<svg width="22" height="30" viewBox="0 0 22 30" fill="none" xmlns="http://www.w3.org/2000/svg">
<g filter="url(#filter0_d_176_1057)">
<path d="M11.25 11.0833C8.07435 11.0833 5.5 9.36711 5.5 7.25003C5.5 5.13295 8.07435 3.41672 11.25 3.41672M11.25 11.0833C14.4256 11.0833 17 12.7996 17 14.9166C17 17.0337 14.4256 18.75 11.25 18.75M11.25 11.0833V3.41672M11.25 11.0833L11.25 18.75M11.25 3.41672C13.3783 3.41672 15.2365 4.18759 16.2307 5.33337M11.25 3.41672V1.50006M11.25 18.75L11.25 20.6666M11.25 18.75C9.12172 18.75 7.26347 17.9791 6.26928 16.8333" stroke="white" stroke-width="2" stroke-linecap="round" shape-rendering="crispEdges"/>
</g>
<defs>
<filter id="filter0_d_176_1057" x="0.5" y="0.500061" width="21.5" height="29.1666" filterUnits="userSpaceOnUse" color-interpolation-filters="sRGB">
<feFlood flood-opacity="0" result="BackgroundImageFix"/>
<feColorMatrix in="SourceAlpha" type="matrix" values="0 0 0 0 0 0 0 0 0 0 0 0 0 0 0 0 0 0 127 0" result="hardAlpha"/>
<feOffset dy="4"/>
<feGaussianBlur stdDeviation="2"/>
<feComposite in2="hardAlpha" operator="out"/>
<feColorMatrix type="matrix" values="0 0 0 0 0 0 0 0 0 0 0 0 0 0 0 0 0 0 0.25 0"/>
<feBlend mode="normal" in2="BackgroundImageFix" result="effect1_dropShadow_176_1057"/>
<feBlend mode="normal" in="SourceGraphic" in2="effect1_dropShadow_176_1057" result="shape"/>
</filter>
</defs>
</svg>
