[
  {
    "packageName": "Managed Services Package",
    "stackPrice": "$$$",
    "computerUsers": 23,
    "stackCategories": 5,
    "activeContracts": 23
  },
  {
    "packageName": "Managed Services Package",
    "stackPrice": "$$$",
    "computerUsers": 23,
    "stackCategories": 5,
    "activeContracts": 23
  },
  {
    "packageName": "Managed Services Package",
    "stackPrice": "$$$",
    "computerUsers": 23,
    "stackCategories": 5,
    "activeContracts": 23
  },
  {
    "packageName": "Managed Services Package",
    "stackPrice": "$$$",
    "computerUsers": 23,
    "stackCategories": 5,
    "activeContracts": 23
  },
  {
    "packageName": "Managed Services Package",
    "stackPrice": "$$$",
    "computerUsers": 23,
    "stackCategories": 5,
    "activeContracts": 23
  },
  {
    "packageName": "Managed Services Package",
    "stackPrice": "$$$",
    "computerUsers": 23,
    "stackCategories": 5,
    "activeContracts": 23
  },
  {
    "packageName": "Managed Services Package",
    "stackPrice": "$$$",
    "computerUsers": 23,
    "stackCategories": 5,
    "activeContracts": 23
  },
  {
    "packageName": "Managed Services Package",
    "stackPrice": "$$$",
    "computerUsers": 23,
    "stackCategories": 5,
    "activeContracts": 23
  },
  {
    "packageName": "Managed Services Package",
    "stackPrice": "$$$",
    "computerUsers": 23,
    "stackCategories": 5,
    "activeContracts": 23
  },
  {
    "packageName": "Managed Services Package",
    "stackPrice": "$$$",
    "computerUsers": 23,
    "stackCategories": 5,
    "activeContracts": 23
  }
]
